<?xml version="1.0" encoding="UTF-8"?>
<svg width="24px" height="24px" viewBox="0 0 24 24" version="1.1" xmlns="http://www.w3.org/2000/svg" xmlns:xlink="http://www.w3.org/1999/xlink">
    <!-- Generator: Sketch 51.3 (57544) - http://www.bohemiancoding.com/sketch -->
    <title>Shape</title>
    <desc>Created with Sketch.</desc>
    <defs></defs>
    <g id="Design" stroke="none" stroke-width="1" fill="none" fill-rule="evenodd">
        <g id="OpportunityBrief-2_Mobile-Copy" transform="translate(-323.000000, -1141.000000)" fill="#000000" fill-rule="nonzero">
            <g id="Group-8" transform="translate(-79.000000, 348.000000)">
                <g id="Group-7" transform="translate(79.000000, 793.000000)">
                    <g id="Group-2" transform="translate(275.000000, 0.000000)">
                        <polygon id="Shape" points="60 0 57.885 2.115 66.255 10.5 48 10.5 48 13.5 66.255 13.5 57.885 21.885 60 24 72 12"></polygon>
                    </g>
                </g>
            </g>
        </g>
    </g>
</svg>